{
  "frames": {
    "king0.png": {
      "frame": {
        "x": 160,
        "y": 64,
        "w": 32,
        "h": 32
      },
      "rotated": false,
      "trimmed": false,
      "spriteSourceSize": {
        "x": 0,
        "y": 0,
        "w": 32,
        "h": 32
      },
      "sourceSize": {
        "w": 32,
        "h": 32
      }
    },
    "king1.png": {
      "frame": {
        "x": 192,
        "y": 64,
        "w": 32,
        "h": 32
      },
      "rotated": false,
      "trimmed": false,
      "spriteSourceSize": {
        "x": 0,
        "y": 0,
        "w": 32,
        "h": 32
      },
      "sourceSize": {
        "w": 32,
        "h": 32
      }
    },
    "king2.png": {
      "frame": {
        "x": 224,
        "y": 64,
        "w": 32,
        "h": 32
      },
      "rotated": false,
      "trimmed": false,
      "spriteSourceSize": {
        "x": 0,
        "y": 0,
        "w": 32,
        "h": 32
      },
      "sourceSize": {
        "w": 32,
        "h": 32
      }
    },
    "king3.png": {
      "frame": {
        "x": 256,
        "y": 64,
        "w": 32,
        "h": 32
      },
      "rotated": false,
      "trimmed": false,
      "spriteSourceSize": {
        "x": 0,
        "y": 0,
        "w": 32,
        "h": 32
      },
      "sourceSize": {
        "w": 32,
        "h": 32
      }
    },
    "king4.png": {
      "frame": {
        "x": 0,
        "y": 96,
        "w": 32,
        "h": 32
      },
      "rotated": false,
      "trimmed": false,
      "spriteSourceSize": {
        "x": 0,
        "y": 0,
        "w": 32,
        "h": 32
      },
      "sourceSize": {
        "w": 32,
        "h": 32
      }
    },
    "king5.png": {
      "frame": {
        "x": 32,
        "y": 96,
        "w": 32,
        "h": 32
      },
      "rotated": false,
      "trimmed": false,
      "spriteSourceSize": {
        "x": 0,
        "y": 0,
        "w": 32,
        "h": 32
      },
      "sourceSize": {
        "w": 32,
        "h": 32
      }
    },
    "king6.png": {
      "frame": {
        "x": 64,
        "y": 96,
        "w": 32,
        "h": 32
      },
      "rotated": false,
      "trimmed": false,
      "spriteSourceSize": {
        "x": 0,
        "y": 0,
        "w": 32,
        "h": 32
      },
      "sourceSize": {
        "w": 32,
        "h": 32
      }
    },
    "king7.png": {
      "frame": {
        "x": 96,
        "y": 96,
        "w": 32,
        "h": 32
      },
      "rotated": false,
      "trimmed": false,
      "spriteSourceSize": {
        "x": 0,
        "y": 0,
        "w": 32,
        "h": 32
      },
      "sourceSize": {
        "w": 32,
        "h": 32
      }
    },
    "king8.png": {
      "frame": {
        "x": 128,
        "y": 96,
        "w": 32,
        "h": 32
      },
      "rotated": false,
      "trimmed": false,
      "spriteSourceSize": {
        "x": 0,
        "y": 0,
        "w": 32,
        "h": 32
      },
      "sourceSize": {
        "w": 32,
        "h": 32
      }
    },
    "king9.png": {
      "frame": {
        "x": 160,
        "y": 96,
        "w": 32,
        "h": 32
      },
      "rotated": false,
      "trimmed": false,
      "spriteSourceSize": {
        "x": 0,
        "y": 0,
        "w": 32,
        "h": 32
      },
      "sourceSize": {
        "w": 32,
        "h": 32
      }
    },
    "king10.png": {
      "frame": {
        "x": 192,
        "y": 96,
        "w": 32,
        "h": 32
      },
      "rotated": false,
      "trimmed": false,
      "spriteSourceSize": {
        "x": 0,
        "y": 0,
        "w": 32,
        "h": 32
      },
      "sourceSize": {
        "w": 32,
        "h": 32
      }
    },
    "king11.png": {
      "frame": {
        "x": 224,
        "y": 96,
        "w": 32,
        "h": 32
      },
      "rotated": false,
      "trimmed": false,
      "spriteSourceSize": {
        "x": 0,
        "y": 0,
        "w": 32,
        "h": 32
      },
      "sourceSize": {
        "w": 32,
        "h": 32
      }
    },
    "king12.png": {
      "frame": {
        "x": 256,
        "y": 96,
        "w": 32,
        "h": 32
      },
      "rotated": false,
      "trimmed": false,
      "spriteSourceSize": {
        "x": 0,
        "y": 0,
        "w": 32,
        "h": 32
      },
      "sourceSize": {
        "w": 32,
        "h": 32
      }
    },
    "king13.png": {
      "frame": {
        "x": 0,
        "y": 128,
        "w": 32,
        "h": 32
      },
      "rotated": false,
      "trimmed": false,
      "spriteSourceSize": {
        "x": 0,
        "y": 0,
        "w": 32,
        "h": 32
      },
      "sourceSize": {
        "w": 32,
        "h": 32
      }
    },
    "king14.png": {
      "frame": {
        "x": 32,
        "y": 128,
        "w": 32,
        "h": 32
      },
      "rotated": false,
      "trimmed": false,
      "spriteSourceSize": {
        "x": 0,
        "y": 0,
        "w": 32,
        "h": 32
      },
      "sourceSize": {
        "w": 32,
        "h": 32
      }
    },
    "king15.png": {
      "frame": {
        "x": 64,
        "y": 128,
        "w": 32,
        "h": 32
      },
      "rotated": false,
      "trimmed": false,
      "spriteSourceSize": {
        "x": 0,
        "y": 0,
        "w": 32,
        "h": 32
      },
      "sourceSize": {
        "w": 32,
        "h": 32
      }
    },
    "king16.png": {
      "frame": {
        "x": 96,
        "y": 128,
        "w": 32,
        "h": 32
      },
      "rotated": false,
      "trimmed": false,
      "spriteSourceSize": {
        "x": 0,
        "y": 0,
        "w": 32,
        "h": 32
      },
      "sourceSize": {
        "w": 32,
        "h": 32
      }
    },
    "king17.png": {
      "frame": {
        "x": 128,
        "y": 128,
        "w": 32,
        "h": 32
      },
      "rotated": false,
      "trimmed": false,
      "spriteSourceSize": {
        "x": 0,
        "y": 0,
        "w": 32,
        "h": 32
      },
      "sourceSize": {
        "w": 32,
        "h": 32
      }
    },
    "king18.png": {
      "frame": {
        "x": 160,
        "y": 128,
        "w": 32,
        "h": 32
      },
      "rotated": false,
      "trimmed": false,
      "spriteSourceSize": {
        "x": 0,
        "y": 0,
        "w": 32,
        "h": 32
      },
      "sourceSize": {
        "w": 32,
        "h": 32
      }
    },
    "king19.png": {
      "frame": {
        "x": 192,
        "y": 128,
        "w": 32,
        "h": 32
      },
      "rotated": false,
      "trimmed": false,
      "spriteSourceSize": {
        "x": 0,
        "y": 0,
        "w": 32,
        "h": 32
      },
      "sourceSize": {
        "w": 32,
        "h": 32
      }
    },
    "king20.png": {
      "frame": {
        "x": 224,
        "y": 128,
        "w": 32,
        "h": 32
      },
      "rotated": false,
      "trimmed": false,
      "spriteSourceSize": {
        "x": 0,
        "y": 0,
        "w": 32,
        "h": 32
      },
      "sourceSize": {
        "w": 32,
        "h": 32
      }
    },
    "king21.png": {
      "frame": {
        "x": 256,
        "y": 128,
        "w": 32,
        "h": 32
      },
      "rotated": false,
      "trimmed": false,
      "spriteSourceSize": {
        "x": 0,
        "y": 0,
        "w": 32,
        "h": 32
      },
      "sourceSize": {
        "w": 32,
        "h": 32
      }
    },
    "king22.png": {
      "frame": {
        "x": 0,
        "y": 160,
        "w": 32,
        "h": 32
      },
      "rotated": false,
      "trimmed": false,
      "spriteSourceSize": {
        "x": 0,
        "y": 0,
        "w": 32,
        "h": 32
      },
      "sourceSize": {
        "w": 32,
        "h": 32
      }
    }
  },
  "animations": {
    "idle": [
      "king12.png", "king12.png", "king11.png", "king11.png"
    ],
    "walk": [
      "king0.png", "king1.png", "king2.png", "king3.png"
    ],
    "jump": [
      "king5.png"
    ],
    "fall": [
      "king6.png"
    ],
    "beHit": [
      "king8.png", "king9.png", "king8.png"
    ],
    "punch": [
      "king11.png", "king13.png", "king11.png"
    ],
    "slash": [
      "king11.png", "king10.png", "king11.png", "king12.png"
    ],
    "die": [
      "king17.png", "king18.png","king19.png", "king20.png", "king21.png", "king22.png"
    ]
  },
  "meta": {
    "app": "https://github.com/piskelapp/piskel/",
    "version": "1.0",
    "image": "characters.png",
    "format": "RGBA8888",
    "size": {
      "w": 288,
      "h": 288
    }
  }
}
