{
  "frames": {
    "door0.png": {
      "frame": {
        "x": 0,
        "y": 0,
        "w": 96,
        "h": 96
      },
      "rotated": false,
      "trimmed": false,
      "spriteSourceSize": {
        "x": 0,
        "y": 0,
        "w": 96,
        "h": 96
      },
      "sourceSize": {
        "w": 96,
        "h": 96
      }
    }
  },
  "meta": {
    "app": "https://github.com/piskelapp/piskel/",
    "version": "1.0",
    "image": "door.png",
    "format": "RGBA8888",
    "size": {
      "w": 96,
      "h": 96
    }
  }
}
